 {
    "siteurl" : "http://www.globalsqa.com/angularJs-protractor/BankingProject/#/manager/addCust",
    "credentials" :{
        "adminUser" : "munich-administrator",
        "adminUserPass" : "password1",
        "url" : "https://backoffice-qualif.smartdatabundle.com/fe/home",
        "demoUser":"munich-administrator",
        "demoPass":"password1",
        "bethuneAdmin":"bethune-administrator",
        "bethunePass":"password1"
    },
    "pageHeaders":{
    "adminPage":"Administration",
    "welcome":"Welcome on\nLive Data Hub\nMunich"
    },
    
    "dataset":{
    "service":"munich",
    "licence":"0: notspecified"
    },
    "service":{
    "type":"Internal"
    
    },
     "User":{
    "fname":"Automation",
    "lname":"user",
    "stype":"Internal",
    "role":"DO",
    "service":"munich"
    
    }
    
    
}